<?xml version="1.0" encoding="UTF-8"?>
<svg width="100px" height="144px" viewBox="0 0 100 144" version="1.1" xmlns="http://www.w3.org/2000/svg" xmlns:xlink="http://www.w3.org/1999/xlink">
    <!-- Generator: Sketch 52.6 (67491) - http://www.bohemiancoding.com/sketch -->
    <title>Artboard</title>
    <desc>Created with Sketch.</desc>
    <g id="Artboard" stroke="none" stroke-width="1" fill="none" fill-rule="evenodd">
        <text id="1" font-family="CMUSerif-Roman, CMU Serif" font-size="16" font-weight="400" fill="#000000">
            <tspan x="14" y="53">1</tspan>
        </text>
        <text id="1" font-family="CMUSerif-Roman, CMU Serif" font-size="16" font-weight="400" fill="#000000">
            <tspan x="14" y="79">1</tspan>
        </text>
        <text id="1" font-family="CMUSerif-Roman, CMU Serif" font-size="16" font-weight="400" fill="#000000">
            <tspan x="14" y="105">1</tspan>
        </text>
        <text id="1" font-family="CMUSerif-Roman, CMU Serif" font-size="16" font-weight="400" fill="#000000">
            <tspan x="14" y="131">1</tspan>
        </text>
        <text id="1" font-family="CMUSerif-Roman, CMU Serif" font-size="16" font-weight="400" fill="#000000">
            <tspan x="14" y="27">1</tspan>
        </text>
        <text id="1" font-family="CMUSerif-Roman, CMU Serif" font-size="16" font-weight="400" fill="#000000">
            <tspan x="30" y="53">1</tspan>
        </text>
        <text id="1" font-family="CMUSerif-Roman, CMU Serif" font-size="16" font-weight="400" fill="#000000">
            <tspan x="47" y="79">1</tspan>
        </text>
        <text id="1" font-family="CMUSerif-Roman, CMU Serif" font-size="16" font-weight="400" fill="#000000">
            <tspan x="63" y="105">1</tspan>
        </text>
        <text id="1" font-family="CMUSerif-Roman, CMU Serif" font-size="16" font-weight="400" fill="#000000">
            <tspan x="80" y="131">1</tspan>
        </text>
        <text id="2" font-family="CMUSerif-Roman, CMU Serif" font-size="16" font-weight="400" fill="#000000">
            <tspan x="30" y="79">2</tspan>
        </text>
        <text id="3" font-family="CMUSerif-Roman, CMU Serif" font-size="16" font-weight="400" fill="#000000">
            <tspan x="30" y="105">3</tspan>
        </text>
        <text id="3" font-family="CMUSerif-Roman, CMU Serif" font-size="16" font-weight="400" fill="#000000">
            <tspan x="47" y="105">3</tspan>
        </text>
        <g id="Group" transform="translate(14.000000, 12.000000)" fill="#000000" font-family="CMUSerif-Roman, CMU Serif" font-size="16" font-weight="400">
            <text id="1">
                <tspan x="0" y="41">1</tspan>
            </text>
            <text id="1">
                <tspan x="0" y="67">1</tspan>
            </text>
            <text id="1">
                <tspan x="0" y="93">1</tspan>
            </text>
            <text id="1">
                <tspan x="0" y="119">1</tspan>
            </text>
            <text id="1">
                <tspan x="0" y="15">1</tspan>
            </text>
        </g>
        <text id="4" font-family="CMUSerif-Roman, CMU Serif" font-size="16" font-weight="400" fill="#000000">
            <tspan x="30" y="131">4</tspan>
        </text>
        <text id="4" font-family="CMUSerif-Roman, CMU Serif" font-size="16" font-weight="400" fill="#000000">
            <tspan x="62" y="131">4</tspan>
        </text>
        <text id="6" font-family="CMUSerif-Roman, CMU Serif" font-size="16" font-weight="400" fill="#000000">
            <tspan x="47" y="131">6</tspan>
        </text>
        <path d="M19,82.5 L34,92.5" id="Line" stroke="#979797" stroke-linecap="square"></path>
        <path d="M34,82 L34,92.5" id="Line" stroke="#979797" stroke-linecap="square"></path>
    </g>
</svg>